# https://fitaudit.ru/food/abc/

продукт,мкгр/100гр,источник данных
масло виноградных косточек,0,Сайт fitaudit.ru
масло кукурузное,0,Сайт fitaudit.ru
жир бараний сырой,0,Сайт fitaudit.ru
масло грецкого ореха,0,Сайт fitaudit.ru
масло миндальное,0,Сайт fitaudit.ru
масло фундука,0,Сайт fitaudit.ru
масло абрикосовое,0,Сайт fitaudit.ru
масло какао,0,Сайт fitaudit.ru
масло хлопковое,0,Сайт fitaudit.ru
масло сафлоровое,0,Сайт fitaudit.ru
масло маковое,0,Сайт fitaudit.ru
масло бабассу,0,Сайт fitaudit.ru
масло ши (карите),0,Сайт fitaudit.ru
жир куриный сырой,0,Сайт fitaudit.ru
масло подсолнечное,0,Сайт fitaudit.ru
масло овса,0,Сайт fitaudit.ru
жир печени трески сырой,0,Сайт fitaudit.ru
жир лосося сырой,0,Сайт fitaudit.ru
жир сельди сырой,0,Сайт fitaudit.ru
жир сардин сырой,0,Сайт fitaudit.ru
жир утиный сырой,0,Сайт fitaudit.ru
жир индейки сырой,0,Сайт fitaudit.ru
жир гусиный сырой,0,Сайт fitaudit.ru
масло авокадо,0,Сайт fitaudit.ru
масло канолы,0,Сайт fitaudit.ru
масло горчичное,0,Сайт fitaudit.ru
маргарин,0,Сайт fitaudit.ru
мясо индейки (индюшатина) сырое мясо целой тушки,88,Сайт fitaudit.ru
мясо индейки (индюшатина) запечённое (мясо целой тушки),101,Сайт fitaudit.ru
кожа индейки в сыром виде,59,Сайт fitaudit.ru
желудки индейки сырые,244,Сайт fitaudit.ru
желудки индейки тушёные,304,Сайт fitaudit.ru
сердце индейки сырое,542,Сайт fitaudit.ru
сердце индейки приготовленное,917,Сайт fitaudit.ru
печень индейки сырая,959,Сайт fitaudit.ru
печень индейки тушёная,1162,Сайт fitaudit.ru
шея индейки сырая,158,Сайт fitaudit.ru
шея индейки отварная или тушёная,176,Сайт fitaudit.ru
грудка индейки (филе) сырая,78,Сайт fitaudit.ru
грудка индейки (филе) варёная,70,Сайт fitaudit.ru
фуа-гра консервированное,444,Сайт fitaudit.ru
куриный фарш сырой,72,Сайт fitaudit.ru
куриная кожа отварная,51,Сайт fitaudit.ru
куриные жулудки сырые,129,Сайт fitaudit.ru
куриные жулудки варёные или тушёные,179,Сайт fitaudit.ru
куриные сердца сырые,384,Сайт fitaudit.ru
куриные сердца приготовленные,558,Сайт fitaudit.ru
куриная печень сырая,547,Сайт fitaudit.ru
куриная печень тушёная или варёная,551,Сайт fitaudit.ru
курица сырое куриное мясо,59,Сайт fitaudit.ru
курица жареная,83,Сайт fitaudit.ru
курица запечённая,74,Сайт fitaudit.ru
курица варёная или тушёная,68,Сайт fitaudit.ru
куриная кожа сырая,46,Сайт fitaudit.ru
куриная спинка приготовленная (мясо с кожей),70,Сайт fitaudit.ru
куриная спинка (без кожи) сырая,67,Сайт fitaudit.ru
куриная грудка сырая с кожей,43,Сайт fitaudit.ru
филе куриной грудки сырое мясо без кожи,41,Сайт fitaudit.ru
куриная голень сырая мясо с кожей,69,Сайт fitaudit.ru
куриная спинка сырая мясо с кожей,52,Сайт fitaudit.ru
куриные бёдра сырые мясо с кожей,60,Сайт fitaudit.ru
куриные бёдра жареные (мясо с кожей),99,Сайт fitaudit.ru
куриные бёдра запечённые (мясо с кожей),70,Сайт fitaudit.ru
куриные бёдра варёные или тушёные (мясо с кожей),78,Сайт fitaudit.ru
куриные бёдра без кожи варёные или тушёные,86,Сайт fitaudit.ru
куриная голень жареная (мясо с кожей),89,Сайт fitaudit.ru
куриная голень запечённая (мясо с кожей),79,Сайт fitaudit.ru
куриная голень (без кожи) жареная,89,Сайт fitaudit.ru
куриная голень тушёная или варёная (мясо с кожей),79,Сайт fitaudit.ru
куриная голень (без кожи) тушёная или варёная,86,Сайт fitaudit.ru
куриные ножки (окорочка) сырые мясо с кожей,60,Сайт fitaudit.ru
куриные ножки жареные (мясо с кожей),94,Сайт fitaudit.ru
куриные ножки запечённые (мясо с кожей),68,Сайт fitaudit.ru
куриные ножки варёные или тушёные (мясо с кожей),79,Сайт fitaudit.ru
куриные крылышки жареные,68,Сайт fitaudit.ru
куриные крылышки запечённые,46,Сайт fitaudit.ru
куриные крылышки сырые,38,Сайт fitaudit.ru
куриные крылышки варёные или тушёные,51,Сайт fitaudit.ru
мясо фазана сырое,72,Сайт fitaudit.ru
печень гусиная сырая,8358,Сайт fitaudit.ru
индейка сырая мясо и кожа целой тушки,86,Сайт fitaudit.ru
индейка запечённая (мясо и кожа целой тушки),103,Сайт fitaudit.ru
утка (мясо утиное) сырое мясо без кожи,281,Сайт fitaudit.ru
утка (мясо утиное) запечённая (мясо без кожи),257,Сайт fitaudit.ru
печень утиная сырая,6624,Сайт fitaudit.ru
мясо гусиное сырое,300,Сайт fitaudit.ru
гусь запечённый,293,Сайт fitaudit.ru
страусиное мясо сырое вырезка,157,Сайт fitaudit.ru
куриная печень жареная,594,Сайт fitaudit.ru
куриные лапки приготовленные,113,Сайт fitaudit.ru
голень индейки сырая без кожи,78,Сайт fitaudit.ru
голень индейки запечённая (без кожи),70,Сайт fitaudit.ru
бедро индейки (филе) запечённое,141,Сайт fitaudit.ru
бедро индейки (филе) сырое,102,Сайт fitaudit.ru
куриная грудка варёная или тушёная (без кожи),49,Сайт fitaudit.ru
куриная грудка запечённая (без кожи),47,Сайт fitaudit.ru
майонез,21,Сайт fitaudit.ru
жир говяжий сырой,0,Сайт fitaudit.ru
жир свиной (сало свиное) сырой,0,Сайт fitaudit.ru
масло оливковое,0,Сайт fitaudit.ru
масло пальмовое,0,Сайт fitaudit.ru
масло кунжутное,0,Сайт fitaudit.ru
масло рисовых отрубей,0,Сайт fitaudit.ru
масло зародышей пшеницы,0,Сайт fitaudit.ru
масло арахисовое,0,Сайт fitaudit.ru
масло соевое,0,Сайт fitaudit.ru
масло кокосовое,0,Сайт fitaudit.ru
колбаса варёная,39,Сайт fitaudit.ru
колбаса копчёная,73,Сайт fitaudit.ru
манка крупа манная сухая,88,Сайт fitaudit.ru
мюсли в сухом виде (с сухофруктами и орехами),366,Сайт fitaudit.ru
мюсли запечённые (гранола) в сухом виде хрустящие с мёдом,719,Сайт fitaudit.ru
каша овсяная (овсянка) на воде (приготовленная),82,Сайт fitaudit.ru
овсяные хлопья сухие (быстрого приготовления),434,Сайт fitaudit.ru
манная каша на воде,46,Сайт fitaudit.ru
воздушный рис готовый к употреблению,188,Сайт fitaudit.ru
воздушная пшеница готовая к употреблению,454,Сайт fitaudit.ru
крупа кукурузная сухая,33,Сайт fitaudit.ru
крупа кукурузная на воде (каша приготовленная),0,Сайт fitaudit.ru
крупа пшеничная сухая,509,Сайт fitaudit.ru
каша пшеничная на воде (варёная),92,Сайт fitaudit.ru
дыня свежая,27,Сайт fitaudit.ru
нектарины свежие,96,Сайт fitaudit.ru
шелковица свежая,67,Сайт fitaudit.ru
маслины консервированные,251,Сайт fitaudit.ru
оливки зелёные консервированные,133,Сайт fitaudit.ru
логанова ягода замороженная,130,Сайт fitaudit.ru
лонган свежий,188,Сайт fitaudit.ru
мушмула свежая,44,Сайт fitaudit.ru
антильский абрикос свежий,96,Сайт fitaudit.ru
манго свежее,123,Сайт fitaudit.ru
мангостин консервированный,77,Сайт fitaudit.ru
манго сушёное,333,Сайт fitaudit.ru
дыня канталупа свежая,46,Сайт fitaudit.ru
мандарины свежие,47,Сайт fitaudit.ru
сок мандариновый свежий,28,Сайт fitaudit.ru
папайя свежая,50,Сайт fitaudit.ru
сок папайи (нектар) консервированный,14,Сайт fitaudit.ru
маракуйя свежая,96,Сайт fitaudit.ru
апельсины свежие,50,Сайт fitaudit.ru
сок апельсиновый свежевыжатый,49,Сайт fitaudit.ru
сок апельсиновый консервированный,24,Сайт fitaudit.ru
цедра апельсина (кожура) свежая,102,Сайт fitaudit.ru
сок персиковый (нектар) консервированный,77,Сайт fitaudit.ru
груша свежая,91,Сайт fitaudit.ru
груша сушёная (вяленая),412,Сайт fitaudit.ru
сок грушевый (нектар) консервированный,74,Сайт fitaudit.ru
хурма свежая,0,Сайт fitaudit.ru
ананас свежий,122,Сайт fitaudit.ru
персик свежие без косточек,76,Сайт fitaudit.ru
персик сушёный,548,Сайт fitaudit.ru
персик вяленый,404,Сайт fitaudit.ru
гранат свежий,176,Сайт fitaudit.ru
опунция (плоды) свежая,89,Сайт fitaudit.ru
слива сушёная низкое содержание воды,679,Сайт fitaudit.ru
чернослив,137,Сайт fitaudit.ru
помело свежее,53,Сайт fitaudit.ru
айва свежая,144,Сайт fitaudit.ru
изюм без косточек,403,Сайт fitaudit.ru
сок ананасовый консервированный,77,Сайт fitaudit.ru
суринамская вишня свежая,0,Сайт fitaudit.ru
плантаны в свежем виде,90,Сайт fitaudit.ru
плантаны приготовленные,73,Сайт fitaudit.ru
слива свежая,63,Сайт fitaudit.ru
клубника замороженная,54,Сайт fitaudit.ru
тамаринд свежий,96,Сайт fitaudit.ru
арбуз свежий,47,Сайт fitaudit.ru
коктейльная вишня консервированная,159,Сайт fitaudit.ru
рамбутан консервированный,73,Сайт fitaudit.ru
малина свежая,100,Сайт fitaudit.ru
ревень стебель в сыром виде,23,Сайт fitaudit.ru
каркаде цветок свежий,0,Сайт fitaudit.ru
яванское яблоко свежее,18,Сайт fitaudit.ru
саподилла плоды свежие,96,Сайт fitaudit.ru
хурма черная (сапота) свежая,237,Сайт fitaudit.ru
сметанное яблоко свежее,96,Сайт fitaudit.ru
клубника свежая,53,Сайт fitaudit.ru
абрикос свежий,87,Сайт fitaudit.ru
курага,381,Сайт fitaudit.ru
абрикосы сушёные низкое содержание воды,640,Сайт fitaudit.ru
барбадосская вишня свежая,96,Сайт fitaudit.ru
яблоки свежие,30,Сайт fitaudit.ru
яблоки запечённые,51,Сайт fitaudit.ru
яблочное варенье консервированное,57,Сайт fitaudit.ru
яблоки сушёные,301,Сайт fitaudit.ru
яблоки вяленые,212,Сайт fitaudit.ru
сок яблочный консервированный,13,Сайт fitaudit.ru
голубика свежая,63,Сайт fitaudit.ru
голубика замороженная,37,Сайт fitaudit.ru
плоды хлебного дерева свежие,93,Сайт fitaudit.ru
плоды кариссы свежие,233,Сайт fitaudit.ru
черимойя свежий,77,Сайт fitaudit.ru
вишня свежая,116,Сайт fitaudit.ru
старфрут (карамбола) свежий,152,Сайт fitaudit.ru
сок абрикосовый (нектар) консервированный,81,Сайт fitaudit.ru
авокадо свежее,211,Сайт fitaudit.ru
бананы сушёные,434,Сайт fitaudit.ru
ежевика свежая,183,Сайт fitaudit.ru
сок ежевичный консервированный,127,Сайт fitaudit.ru
бананы свежие,87,Сайт fitaudit.ru
ежевика замороженная,133,Сайт fitaudit.ru
смородина красная или белая свежая,119,Сайт fitaudit.ru
сахарное яблоко свежее,0,Сайт fitaudit.ru
финики деглет нур,229,Сайт fitaudit.ru
бузина свежая,68,Сайт fitaudit.ru
инжир свежий,78,Сайт fitaudit.ru
инжир сушёный,319,Сайт fitaudit.ru
вишня замороженная,100,Сайт fitaudit.ru
клюква свежая,62,Сайт fitaudit.ru
клюква сушёная,70,Сайт fitaudit.ru
смородина чёрная свежая,96,Сайт fitaudit.ru
виноград (мускатные сорта) свежий,132,Сайт fitaudit.ru
виноград (красный или зелёный) свежий,141,Сайт fitaudit.ru
крыжовник свежий,78,Сайт fitaudit.ru
грейпфрут свежий,36,Сайт fitaudit.ru
ягоды годжи сушёные,0,Сайт fitaudit.ru
белый или жёлтый грейпфрут свежий,56,Сайт fitaudit.ru
сок лимонный свежий,18,Сайт fitaudit.ru
лимон свежий без кожуры,41,Сайт fitaudit.ru
цедра лимона (кожура) свежая,102,Сайт fitaudit.ru
лайм свежий,72,Сайт fitaudit.ru
сок лайма свежий,30,Сайт fitaudit.ru
личи свежие,164,Сайт fitaudit.ru
сок виноградный консервированный,20,Сайт fitaudit.ru
физалис свежий,0,Сайт fitaudit.ru
гуава свежая,256,Сайт fitaudit.ru
джекфрут свежий,84,Сайт fitaudit.ru
джамболан свежий,0,Сайт fitaudit.ru
ююба (китайский финик) свежий,81,Сайт fitaudit.ru
киви свежий,144,Сайт fitaudit.ru
кумкват свежий,106,Сайт fitaudit.ru
яблоки голден свежие,33,Сайт fitaudit.ru
яблоки зелёные (гренни смит) свежие,34,Сайт fitaudit.ru
яблоки красные свежие,30,Сайт fitaudit.ru
ананасы консервированные,119,Сайт fitaudit.ru
абрикосы консервированные,108,Сайт fitaudit.ru
фейхоа свежая,40,Сайт fitaudit.ru
персики консервированные,70,Сайт fitaudit.ru
груша консервированная,68,Сайт fitaudit.ru
финики маджуль,402,Сайт fitaudit.ru
дуриан свежий,230,Сайт fitaudit.ru
клементин свежий,48,Сайт fitaudit.ru
сок грейпфрутовый свежий,37,Сайт fitaudit.ru
груша конференция свежая,116,Сайт fitaudit.ru
кивано свежая,22,Сайт fitaudit.ru
наранхилья замороженная,31,Сайт fitaudit.ru
сок сметанного яблока (нектар) консервированный,11,Сайт fitaudit.ru
сок манго (нектар) консервированный,17,Сайт fitaudit.ru
сок гранатовый консервированный,23,Сайт fitaudit.ru
ветчина,99,Сайт fitaudit.ru
колбаса кровяная,44,Сайт fitaudit.ru
колбаса докторская,67,Сайт fitaudit.ru
паштет печёночный,444,Сайт fitaudit.ru
колбаса пепперони,101,Сайт fitaudit.ru
салями,107,Сайт fitaudit.ru
сосиски,86,Сайт fitaudit.ru
сосиски молочные,100,Сайт fitaudit.ru
салат корн свежий,149,Сайт fitaudit.ru
вигна в сыром виде,53,Сайт fitaudit.ru
кукуруза в сыром виде,60,Сайт fitaudit.ru
кукуруза варёная,54,Сайт fitaudit.ru
кукуруза консервированная,37,Сайт fitaudit.ru
кукуруза замороженная,40,Сайт fitaudit.ru
топинамбур в сыром виде,156,Сайт fitaudit.ru
гриб древесный сырой,494,Сайт fitaudit.ru
капуста кудрявая в сыром виде,1666,Сайт fitaudit.ru
кресс-салат свежий,189,Сайт fitaudit.ru
вигна приготовленная (варёная),52,Сайт fitaudit.ru
огурцы свежие,46,Сайт fitaudit.ru
листья одуванчика свежие,190,Сайт fitaudit.ru
баклажан свежий,90,Сайт fitaudit.ru
эдамаме замороженные,360,Сайт fitaudit.ru
эдамаме приготовленные,383,Сайт fitaudit.ru
эндивий свежий,110,Сайт fitaudit.ru
баклажан приготовленный,66,Сайт fitaudit.ru
эскариоль приготовленный,97,Сайт fitaudit.ru
чеснок в сыром виде,332,Сайт fitaudit.ru
корень имбиря в сыром виде,251,Сайт fitaudit.ru
салат римский свежий,53,Сайт fitaudit.ru
салат айсберг свежий,28,Сайт fitaudit.ru
салат латук свежий,32,Сайт fitaudit.ru
салат кочанный свежий,18,Сайт fitaudit.ru
салат латук красный свежий,31,Сайт fitaudit.ru
шампиньоны варёные или тушёные,560,Сайт fitaudit.ru
шампиньоны жареные,323,Сайт fitaudit.ru
шампиньоны сырые,353,Сайт fitaudit.ru
шампиньоны консервированные,261,Сайт fitaudit.ru
грибы портобелло сырые,318,Сайт fitaudit.ru
шампиньоны коричневые сырые,556,Сайт fitaudit.ru
грибы шиитаке сырые,158,Сайт fitaudit.ru
грибы лисички сырые,392,Сайт fitaudit.ru
кольраби свежая,143,Сайт fitaudit.ru
кольраби (капуста) варёная,147,Сайт fitaudit.ru
грибы портобелло жареные,432,Сайт fitaudit.ru
грибы сморчки сырые,694,Сайт fitaudit.ru
лебеда свежая,326,Сайт fitaudit.ru
марь белая отваренная,219,Сайт fitaudit.ru
лук-порей свежий,133,Сайт fitaudit.ru
лук-порей приготовленный,69,Сайт fitaudit.ru
чечевица пророщенная в свежем виде,391,Сайт fitaudit.ru
лук репчатый жареный,19,Сайт fitaudit.ru
лук зелёный свежий,34,Сайт fitaudit.ru
лук-батун свежий,78,Сайт fitaudit.ru
лук репчатый красный (сладкий) свежий,62,Сайт fitaudit.ru
петрушка свежая,166,Сайт fitaudit.ru
пастернак корень в сыром виде,133,Сайт fitaudit.ru
грибы шиитаке сушёные,5739,Сайт fitaudit.ru
грибы шиитаке приготовленные,996,Сайт fitaudit.ru
листовая горчица свежая,183,Сайт fitaudit.ru
шпинат горчичный свежий,83,Сайт fitaudit.ru
шпинат новозеландский свежий,103,Сайт fitaudit.ru
бамия в сыром виде,121,Сайт fitaudit.ru
лук репчатый свежий,43,Сайт fitaudit.ru
лук репчатый варёный,74,Сайт fitaudit.ru
перец болгарский зелёный свежий,73,Сайт fitaudit.ru
зелёный горошек свежий,196,Сайт fitaudit.ru
зелёный горошек отварной,192,Сайт fitaudit.ru
зелёный горошек замороженный,138,Сайт fitaudit.ru
горох пророщенный в свежем виде,302,Сайт fitaudit.ru
спаржа замороженная,152,Сайт fitaudit.ru
бамбуковые побеги в сыром виде,211,Сайт fitaudit.ru
бамбуковые побеги варёные,91,Сайт fitaudit.ru
бамбуковые побеги консервированные,127,Сайт fitaudit.ru
фасоль красная (кидни) пророщенная в свежем виде,177,Сайт fitaudit.ru
семена люцерны пророщенные в свежем виде,174,Сайт fitaudit.ru
листья амаранта свежие,180,Сайт fitaudit.ru
артишоки свежие,257,Сайт fitaudit.ru
артишоки варёные,141,Сайт fitaudit.ru
артишоки замороженные,60,Сайт fitaudit.ru
спаржа в сыром виде,210,Сайт fitaudit.ru
спаржа варёная,183,Сайт fitaudit.ru
спаржа консервированная,107,Сайт fitaudit.ru
фасоль стручковая в сыром виде спаржевая,77,Сайт fitaudit.ru
фасоль стручковая варёная (спаржевая),63,Сайт fitaudit.ru
фасоль стручковая замороженная (спаржевая),54,Сайт fitaudit.ru
маш пророщенный в свежем виде,182,Сайт fitaudit.ru
свекла консервированная,66,Сайт fitaudit.ru
ботва свекольная в свежем виде,212,Сайт fitaudit.ru
бобы зелёные свежие,82,Сайт fitaudit.ru
бобы зелёные варёные,67,Сайт fitaudit.ru
брокколи варёная,68,Сайт fitaudit.ru
брокколи свежая,54,Сайт fitaudit.ru
брокколи замороженная,40,Сайт fitaudit.ru
брокколи рааб свежая,47,Сайт fitaudit.ru
брокколи рааб приготовленная,83,Сайт fitaudit.ru
брюссельская капуста свежая,78,Сайт fitaudit.ru
брюссельская капуста варёная,92,Сайт fitaudit.ru
свекла варёная,82,Сайт fitaudit.ru
свекла сырая,83,Сайт fitaudit.ru
капуста квашеная (кимчи),27,Сайт fitaudit.ru
артишоки испанские свежие,257,Сайт fitaudit.ru
артишоки испанские варёные,0,Сайт fitaudit.ru
морковь сырая (свежая),50,Сайт fitaudit.ru
морковь варёная,19,Сайт fitaudit.ru
морковь консервированная,116,Сайт fitaudit.ru
морковь замороженная,82,Сайт fitaudit.ru
брюссельская капуста замороженная,37,Сайт fitaudit.ru
корень лопуха в сыром виде,86,Сайт fitaudit.ru
корень лопуха отваренный,99,Сайт fitaudit.ru
белокопытник в сыром виде,114,Сайт fitaudit.ru
белокопытник отваренный,66,Сайт fitaudit.ru
капуста свежая белокачанная,21,Сайт fitaudit.ru
капуста красная свежая,19,Сайт fitaudit.ru
капуста варёная (белокачанная),19,Сайт fitaudit.ru
капуста савойская свежая,69,Сайт fitaudit.ru
капуста пекинская свежая,23,Сайт fitaudit.ru
листья цикория свежие,328,Сайт fitaudit.ru
корень цикория в сыром виде,86,Сайт fitaudit.ru
шнитт-лук свежий,174,Сайт fitaudit.ru
капуста листовая свежая,51,Сайт fitaudit.ru
капуста листовая приготовленная (отваренная),57,Сайт fitaudit.ru
кинза (листья кориандра) свежие,250,Сайт fitaudit.ru
маниок в сыром виде,111,Сайт fitaudit.ru
цветная капуста свежая,43,Сайт fitaudit.ru
цветная капуста варёная,20,Сайт fitaudit.ru
цветная капуста замороженная,34,Сайт fitaudit.ru
корень сельдерея в сыром виде,78,Сайт fitaudit.ru
корень сельдерея отваренный,48,Сайт fitaudit.ru
сельдерей свежий,39,Сайт fitaudit.ru
мангольд свежий,199,Сайт fitaudit.ru
чайот в сыром виде,137,Сайт fitaudit.ru
таро клубни в сыром виде,191,Сайт fitaudit.ru
таро приготовленные клубни,223,Сайт fitaudit.ru
помидоры зелёные в сыром виде,100,Сайт fitaudit.ru
помидоры свежие,66,Сайт fitaudit.ru
помидоры приготовленные,83,Сайт fitaudit.ru
батат в сыром виде,168,Сайт fitaudit.ru
батат печёный,179,Сайт fitaudit.ru
репа сырая,94,Сайт fitaudit.ru
репа приготовленная,2,Сайт fitaudit.ru
томатная паста консервированная,406,Сайт fitaudit.ru
жеруха в сыром виде,86,Сайт fitaudit.ru
ботва репы свежая,389,Сайт fitaudit.ru
ямс сырой,198,Сайт fitaudit.ru
ямс приготовленный,169,Сайт fitaudit.ru
щавель свежий,146,Сайт fitaudit.ru
фасоль пёстрая (пинто) пророщенная в свежем виде,356,Сайт fitaudit.ru
сок морковный консервированный,51,Сайт fitaudit.ru
спирулина в сыром виде,663,Сайт fitaudit.ru
картофель сырой,122,Сайт fitaudit.ru
побеги лаконоса в сыром виде,174,Сайт fitaudit.ru
картофель красный в сыром виде,149,Сайт fitaudit.ru
картофель запечённый,239,Сайт fitaudit.ru
картофель варёный в мундире,209,Сайт fitaudit.ru
перец болгарский замороженный (зелёный),59,Сайт fitaudit.ru
картофель варёный,186,Сайт fitaudit.ru
картофель жареный,326,Сайт fitaudit.ru
картофельные хлопья в сухом виде (пюре быстрого приготовления),179,Сайт fitaudit.ru
листья тыквы свежие,148,Сайт fitaudit.ru
тыква в сыром виде,141,Сайт fitaudit.ru
тыква варёная или запечённая,101,Сайт fitaudit.ru
портулак свежий,126,Сайт fitaudit.ru
редиска свежая,56,Сайт fitaudit.ru
дайкон свежий,128,Сайт fitaudit.ru
картофель фри,116,Сайт fitaudit.ru
картофель замороженный,104,Сайт fitaudit.ru
крахмал картофельный,219,Сайт fitaudit.ru
зелёные соевые бобы отваренные,130,Сайт fitaudit.ru
соевые бобы пророщенные в свежем виде,474,Сайт fitaudit.ru
зелёные соевые бобы свежие,142,Сайт fitaudit.ru
шпинат свежий,144,Сайт fitaudit.ru
шпинат варёный,193,Сайт fitaudit.ru
шпинат консервированный,200,Сайт fitaudit.ru
шпинат замороженный,160,Сайт fitaudit.ru
брюква в сыром виде,36,Сайт fitaudit.ru
козлобородник (корень козлобородника) в сыром виде,99,Сайт fitaudit.ru
капуста квашеная,107,Сайт fitaudit.ru
ирландский мох в сыром виде,166,Сайт fitaudit.ru
морская капуста в сыром виде,144,Сайт fitaudit.ru
водоросли нори в сыром виде,293,Сайт fitaudit.ru
тыква баттернат в сыром виде,80,Сайт fitaudit.ru
тыква хаббард в сыром виде,71,Сайт fitaudit.ru
тыква спагетти в сыром виде,41,Сайт fitaudit.ru
тыква крукнек (кривошейка) в сыром виде,102,Сайт fitaudit.ru
патиссон в сыром виде,113,Сайт fitaudit.ru
патиссон приготовленный,92,Сайт fitaudit.ru
кабачок в сыром виде,59,Сайт fitaudit.ru
кабачок жареный или запечённый (без масла),58,Сайт fitaudit.ru
кабачок замороженный,56,Сайт fitaudit.ru
кабачковая икра кабачок консервированный,109,Сайт fitaudit.ru
тыква акорн в сыром виде,72,Сайт fitaudit.ru
сок томатный консервированный без соли,47,Сайт fitaudit.ru
перец болгарский красный замороженный,59,Сайт fitaudit.ru
перец болгарский жёлтый свежий,119,Сайт fitaudit.ru
радиккьо свежий,379,Сайт fitaudit.ru
кабачки молодые в сыром виде,108,Сайт fitaudit.ru
грибы эноки сырые,119,Сайт fitaudit.ru
физалис овощной свежий,88,Сайт fitaudit.ru
фенхель в сыром виде (плод или корень),73,Сайт fitaudit.ru
руккола свежая,84,Сайт fitaudit.ru
сердцевина пальмы консервированная,148,Сайт fitaudit.ru
перец чили острый высушенный на солнце,253,Сайт fitaudit.ru
опунция (листья) в сыром виде,58,Сайт fitaudit.ru
картофельное пюре с молоком и маслом приготовленное,153,Сайт fitaudit.ru
кетчуп,94,Сайт fitaudit.ru
огурцы солёные (маринованные),94,Сайт fitaudit.ru
кипрей (листья кипрея) свежий,356,Сайт fitaudit.ru
грибы вешенки сырые,271,Сайт fitaudit.ru
грибы соломенные консервированные,148,Сайт fitaudit.ru
грибы майтаке сырые,280,Сайт fitaudit.ru
васаби корень в сыром виде,172,Сайт fitaudit.ru
брокколи китайская свежая,71,Сайт fitaudit.ru
папоротник (побеги) в сыром виде,356,Сайт fitaudit.ru
брокколи китайская приготовленная,68,Сайт fitaudit.ru
лемонграсс свежий,296,Сайт fitaudit.ru
виноградные листья свежие,461,Сайт fitaudit.ru
помидоры оранжевые свежие,69,Сайт fitaudit.ru
помидоры жёлтые свежие,112,Сайт fitaudit.ru
спирулина сушёная (в виде порошка),6778,Сайт fitaudit.ru
водоросли вакаме в сыром виде,316,Сайт fitaudit.ru
перец чили зелёный острый свежий,193,Сайт fitaudit.ru
картофель запечённый в кожуре,131,Сайт fitaudit.ru
лук-шалот свежий,98,Сайт fitaudit.ru
морковь сушёная,411,Сайт fitaudit.ru
перец чили красный острый свежий,143,Сайт fitaudit.ru
перец болгарский красный свежий,19,Сайт fitaudit.ru
зелёный горошек консервированный,91,Сайт fitaudit.ru
семена гулявника,122,Сайт fitaudit.ru
мука кунжутная,1689,Сайт fitaudit.ru
семя льняное,1356,Сайт fitaudit.ru
кунжут необжаренный,1556,Сайт fitaudit.ru
семена лотоса,104,Сайт fitaudit.ru
кунжут обжаренный,1619,Сайт fitaudit.ru
семена чиа,1027,Сайт fitaudit.ru
семя конопляное,1778,Сайт fitaudit.ru
семена тыквы очищенные,1492,Сайт fitaudit.ru
миндаль свежий,1146,Сайт fitaudit.ru
миндаль жареный,1221,Сайт fitaudit.ru
семечки подсолнуха очищенные,2000,Сайт fitaudit.ru
семечки подсолнуха жареные (очищенные),2033,Сайт fitaudit.ru
мука подсолнечная,1903,Сайт fitaudit.ru
орех серый,500,Сайт fitaudit.ru
кешью жареный,2467,Сайт fitaudit.ru
кешью сырой,2439,Сайт fitaudit.ru
каштан очищенный свежий,464,Сайт fitaudit.ru
буковый орешек,744,Сайт fitaudit.ru
бразильский орех,1937,Сайт fitaudit.ru
кокосовое молоко свежее,296,Сайт fitaudit.ru
кокосовое молоко консервированное,248,Сайт fitaudit.ru
кокосовая вода свежая,44,Сайт fitaudit.ru
фундук жареный,1944,Сайт fitaudit.ru
фундук свежий,1917,Сайт fitaudit.ru
орех макадамия,840,Сайт fitaudit.ru
орех макадамия жареный,633,Сайт fitaudit.ru
мякоть кокоса свежая,483,Сайт fitaudit.ru
кокосовая стружка неподслащённая,884,Сайт fitaudit.ru
фисташки свежие,1444,Сайт fitaudit.ru
фисташки жареные (без соли),1437,Сайт fitaudit.ru
чёрный орех,1511,Сайт fitaudit.ru
грецкий орех,1762,Сайт fitaudit.ru
пекан,1333,Сайт fitaudit.ru
орех пили,1064,Сайт fitaudit.ru
кедровый орех без скорлупы,1471,Сайт fitaudit.ru
фисташки жареные солёные,1437,Сайт fitaudit.ru
говяжий мозг сырой,319,Сайт fitaudit.ru
говяжий мозг жареный,244,Сайт fitaudit.ru
говяжье сердце сырое,440,Сайт fitaudit.ru
говяжье сердце отварное,621,Сайт fitaudit.ru
говяжьи почки сырые,473,Сайт fitaudit.ru
говяжьи почки варёные,627,Сайт fitaudit.ru
говяжья печень сырая,10839,Сайт fitaudit.ru
говяжья печень тушёная или жареная,15870,Сайт fitaudit.ru
говяжье лёгкое сырое,289,Сайт fitaudit.ru
говяжье лёгкое отварное или тушёное,246,Сайт fitaudit.ru
говяжья тушёнка консервированная,33,Сайт fitaudit.ru
свинина жареная приготовленная,106,Сайт fitaudit.ru
свиные ножки отварные,69,Сайт fitaudit.ru
свиной хвост в сыром виде,93,Сайт fitaudit.ru
свиной хвост приготовленный,74,Сайт fitaudit.ru
вырезка свиная сырая,99,Сайт fitaudit.ru
фарш свиной сырой 20% жира,50,Сайт fitaudit.ru
фарш свиной приготовленный (20% жира),49,Сайт fitaudit.ru
мясо свиное без жира (филе) сырое,72,Сайт fitaudit.ru
филе свиное приготовленное,59,Сайт fitaudit.ru
рёбрышки свиные (кантри) в сыром виде,87,Сайт fitaudit.ru
корейка свиная запечённая,86,Сайт fitaudit.ru
корейка свиная в сыром виде,62,Сайт fitaudit.ru
сало свиное (без прослойки) сырое,20,Сайт fitaudit.ru
сало свиное (с прослойкой) сырое,58,Сайт fitaudit.ru
свиной окорок и кострец в сыром виде,88,Сайт fitaudit.ru
свиная рулька голяшка в сыром виде,146,Сайт fitaudit.ru
свинина в сыром виде мясо с жиром,62,Сайт fitaudit.ru
свинина тушёная приготовленная,99,Сайт fitaudit.ru
свинина запечённая в духовке приготовленная,90,Сайт fitaudit.ru
рёбрышки (рёбра) свиные в сыром виде,89,Сайт fitaudit.ru
свиной мозг в сыром виде,267,Сайт fitaudit.ru
свиной мозг приготовленный,292,Сайт fitaudit.ru
свиные кишки в сыром виде,84,Сайт fitaudit.ru
свиные кишки приготовленные,51,Сайт fitaudit.ru
шейка свиная (шея) в сыром виде,107,Сайт fitaudit.ru
свиная селезёнка в сыром виде,146,Сайт fitaudit.ru
свиная селезёнка приготовленная,148,Сайт fitaudit.ru
свиной желудок в сыром виде,188,Сайт fitaudit.ru
свиной язык в сыром виде,78,Сайт fitaudit.ru
свиной язык отварной,122,Сайт fitaudit.ru
свиные уши варёные,7,Сайт fitaudit.ru
свиные ножки в сыром виде,78,Сайт fitaudit.ru
свиное сердце в сыром виде,453,Сайт fitaudit.ru
свиные уши в сыром виде,7,Сайт fitaudit.ru
свиное сердце варёное или тушёное,564,Сайт fitaudit.ru
свиная щековина в сыром виде,44,Сайт fitaudit.ru
свиные почки в сыром виде,691,Сайт fitaudit.ru
свиные почки тушёные,759,Сайт fitaudit.ru
нутряной свиной жир в сыром виде,10,Сайт fitaudit.ru
свиная печень жареная или тушёная,704,Сайт fitaudit.ru
свиное лёгкое в сыром виде,92,Сайт fitaudit.ru
свиное лёгкое варёное,89,Сайт fitaudit.ru
свиная печень в сыром виде,752,Сайт fitaudit.ru
свиная поджелудочная железа в сыром виде,100,Сайт fitaudit.ru
свиная поджелудочная железа приготовленная,122,Сайт fitaudit.ru
карбонат свиной в сыром виде,60,Сайт fitaudit.ru
свиной желудок отварной,266,Сайт fitaudit.ru
сало свиное топлёное (смалец),24,Сайт fitaudit.ru
грудинка свиная в сыром виде,84,Сайт fitaudit.ru
лопатка свиная в сыром виде,100,Сайт fitaudit.ru
вода,8,Сайт fitaudit.ru
вино десертное сухое,50,Сайт fitaudit.ru
окунь речной запечённый,132,Сайт fitaudit.ru
масляная рыба (эсколар) копчёная,77,Сайт fitaudit.ru
менёк запечённый,26,Сайт fitaudit.ru
налим запечённый,284,Сайт fitaudit.ru
махи-махи (корифена) запечённая,59,Сайт fitaudit.ru
мольва запечённая,157,Сайт fitaudit.ru
терпуг запечённый,39,Сайт fitaudit.ru
устрицы сырые,3176,Сайт fitaudit.ru
морской гребешок сырой,26,Сайт fitaudit.ru
кальмар сырой,2101,Сайт fitaudit.ru
кальмар приготовленный (жареный),2349,Сайт fitaudit.ru
форель запечённая,268,Сайт fitaudit.ru
зубатка запечённая,41,Сайт fitaudit.ru
желтохвост (лакедра) запечённый,64,Сайт fitaudit.ru
каракатица приготовленная,1109,Сайт fitaudit.ru
сом жареный,43,Сайт fitaudit.ru
осьминог варёный,821,Сайт fitaudit.ru
молочная рыба (ханос) запечённая,49,Сайт fitaudit.ru
морской чёрт приготовленный,40,Сайт fitaudit.ru
судак запечённый,253,Сайт fitaudit.ru
минтай запечённый,71,Сайт fitaudit.ru
икра красная или чёрная приготовленная (термически обработанная),142,Сайт fitaudit.ru
сёмга запечённая,357,Сайт fitaudit.ru
кета запечённая,79,Сайт fitaudit.ru
горбуша запечённая,83,Сайт fitaudit.ru
чавыча запечённая,59,Сайт fitaudit.ru
тилапия сырая,83,Сайт fitaudit.ru
тилапия запечённая,83,Сайт fitaudit.ru
устрицы запечённые,4932,Сайт fitaudit.ru
кижуч запечённый,79,Сайт fitaudit.ru
треска сырая,24,Сайт fitaudit.ru
треска запечённая,21,Сайт fitaudit.ru
креветки варёные,421,Сайт fitaudit.ru
креветки сырые,434,Сайт fitaudit.ru
горбыль жареный,72,Сайт fitaudit.ru
менёк сырой,20,Сайт fitaudit.ru
махи-махи (корифена) сырая,46,Сайт fitaudit.ru
горбыль сырой,47,Сайт fitaudit.ru
угорь сырой,26,Сайт fitaudit.ru
угорь запечённый или копчёный,32,Сайт fitaudit.ru
камбала сырая,21,Сайт fitaudit.ru
камбала жареная,26,Сайт fitaudit.ru
групер сырой,22,Сайт fitaudit.ru
групер запечённый,50,Сайт fitaudit.ru
анчоусы сырые,234,Сайт fitaudit.ru
анчоусы консервированные (в масле),377,Сайт fitaudit.ru
окунь речной сырой,103,Сайт fitaudit.ru
налим сырой,222,Сайт fitaudit.ru
масляная рыба (эсколар) сырая,60,Сайт fitaudit.ru
карп сырой,63,Сайт fitaudit.ru
карп запечённый,81,Сайт fitaudit.ru
омуль сырой,80,Сайт fitaudit.ru
сом сырой,38,Сайт fitaudit.ru
омуль запечённый,239,Сайт fitaudit.ru
молочная рыба (ханос) сырая,38,Сайт fitaudit.ru
морской чёрт сырой,31,Сайт fitaudit.ru
кефаль сырая,57,Сайт fitaudit.ru
кефаль запечённая,157,Сайт fitaudit.ru
окунь морской (красный) сырой,23,Сайт fitaudit.ru
окунь морской (красный) запечённый,29,Сайт fitaudit.ru
щука сырая,57,Сайт fitaudit.ru
щука приготовленная,72,Сайт fitaudit.ru
судак сырой,198,Сайт fitaudit.ru
минтай сырой,56,Сайт fitaudit.ru
палтус сырой,26,Сайт fitaudit.ru
палтус запечённый,31,Сайт fitaudit.ru
сельдь сырая,102,Сайт fitaudit.ru
сельдь солёная,117,Сайт fitaudit.ru
сельдь копчёная,150,Сайт fitaudit.ru
сельдь запечённая,131,Сайт fitaudit.ru
мольва сырая,122,Сайт fitaudit.ru
терпуг сырой,30,Сайт fitaudit.ru
скумбрия сырая,81,Сайт fitaudit.ru
скумбрия запечённая,104,Сайт fitaudit.ru
ставрида консервированная,163,Сайт fitaudit.ru
нерка сырая,71,Сайт fitaudit.ru
нерка запечённая,84,Сайт fitaudit.ru
сардина консервированная в масле,207,Сайт fitaudit.ru
сибас сырой,21,Сайт fitaudit.ru
сибас запечённый,27,Сайт fitaudit.ru
мясо акулы сырое,37,Сайт fitaudit.ru
мясо акулы жареное,47,Сайт fitaudit.ru
корюшка сырая,154,Сайт fitaudit.ru
икра красная или чёрная сырая,111,Сайт fitaudit.ru
сёмга сырая,278,Сайт fitaudit.ru
чавыча сырая,46,Сайт fitaudit.ru
кета сырая,61,Сайт fitaudit.ru
кижуч сырой,57,Сайт fitaudit.ru
горбуша сырая,70,Сайт fitaudit.ru
тунец консервированный в собственном соку,56,Сайт fitaudit.ru
мерланг сырой,34,Сайт fitaudit.ru
мерланг запечённый,44,Сайт fitaudit.ru
луциан (берикс) сырой,31,Сайт fitaudit.ru
луциан (берикс) запечённый,51,Сайт fitaudit.ru
корюшка жареная,198,Сайт fitaudit.ru
осётр сырой,46,Сайт fitaudit.ru
осётр запечённый,59,Сайт fitaudit.ru
сурими сырой,36,Сайт fitaudit.ru
рыба-меч запечённая,51,Сайт fitaudit.ru
рыба-меч сырая,43,Сайт fitaudit.ru
форель сырая,209,Сайт fitaudit.ru
крабовые палочки (сурими) готовые к употреблению,36,Сайт fitaudit.ru
морские ушки сырые,218,Сайт fitaudit.ru
морские ушки приготовленные,253,Сайт fitaudit.ru
моллюски сырые,59,Сайт fitaudit.ru
моллюски варёные,764,Сайт fitaudit.ru
каракатица сырая,652,Сайт fitaudit.ru
мидии сырые,104,Сайт fitaudit.ru
мидии отварные,166,Сайт fitaudit.ru
осьминог сырой,483,Сайт fitaudit.ru
зубатка сырая,32,Сайт fitaudit.ru
желтохвост (лакедра) сырой,50,Сайт fitaudit.ru
камчатский краб сырой,1024,Сайт fitaudit.ru
камчатский краб варёный,1313,Сайт fitaudit.ru
краб (мясо краба) сырой,743,Сайт fitaudit.ru
краб варёный,904,Сайт fitaudit.ru
раки сырые,466,Сайт fitaudit.ru
раки варёные,761,Сайт fitaudit.ru
лобстеры (омары лангусты) сырые,1499,Сайт fitaudit.ru
лобстеры (омары лангусты) варёные,1722,Сайт fitaudit.ru
соевое молоко,137,Сайт fitaudit.ru
французская зеленая фасоль свежая,489,Сайт fitaudit.ru
французская зеленая фасоль варёная,128,Сайт fitaudit.ru
фасоль красная (кидни) сухая,1064,Сайт fitaudit.ru
фасоль красная (кидни) варёная,240,Сайт fitaudit.ru
фасоль красная (кидни) консервированная,150,Сайт fitaudit.ru
фасоль адзуки сухая,1216,Сайт fitaudit.ru
фасоль адзуки варёная,331,Сайт fitaudit.ru
фасоль чёрная сухая,934,Сайт fitaudit.ru
фасоль чёрная варёная,232,Сайт fitaudit.ru
бобы в сыром виде зрелые,916,Сайт fitaudit.ru
бобы варёные (зрелые),288,Сайт fitaudit.ru
бобы консервированные (зрелые),121,Сайт fitaudit.ru
нут сухой,729,Сайт fitaudit.ru
нут варёный,391,Сайт fitaudit.ru
фасоль черноглазая сухая,939,Сайт fitaudit.ru
фасоль черноглазая варёная,298,Сайт fitaudit.ru
фасоль белая сухая,927,Сайт fitaudit.ru
фасоль белая варёная,233,Сайт fitaudit.ru
фасоль белая консервированная,231,Сайт fitaudit.ru
фасоль розовая варёная,301,Сайт fitaudit.ru
фасоль пёстрая (пинто) сухая,992,Сайт fitaudit.ru
фасоль пёстрая (пинто) варёная,243,Сайт fitaudit.ru
фасоль розовая сухая,900,Сайт fitaudit.ru
горох сухой зрелый,906,Сайт fitaudit.ru
горох варёный на воде (зрелый),201,Сайт fitaudit.ru
арахис сырой,1271,Сайт fitaudit.ru
арахисовая паста,469,Сайт fitaudit.ru
чечевица сухая,838,Сайт fitaudit.ru
фасоль лима сухая,822,Сайт fitaudit.ru
фасоль лима варёная,261,Сайт fitaudit.ru
чечевица варёная на воде,279,Сайт fitaudit.ru
люпин (бобы люпина) сухие,1136,Сайт fitaudit.ru
люпин (бобы люпина) приготовленные,257,Сайт fitaudit.ru
маш варёный,173,Сайт fitaudit.ru
маш сухой,1046,Сайт fitaudit.ru
соевый жмых,2222,Сайт fitaudit.ru
соевый протеин (изолят) порошок,1777,Сайт fitaudit.ru
соевый соус shoyu из сои и пшеницы,48,Сайт fitaudit.ru
соевый соус (тамари tamari),150,Сайт fitaudit.ru
соевый соус (гидролизованный),46,Сайт fitaudit.ru
сыр тофу твердый (полотняный),237,Сайт fitaudit.ru
сыр тофу ферментированный (fuyu),418,Сайт fitaudit.ru
голубиный горох сухой,1174,Сайт fitaudit.ru
голубиный горох варёный,299,Сайт fitaudit.ru
мука арахисовая,2266,Сайт fitaudit.ru
соевые бобы зрелые в сухом виде,1842,Сайт fitaudit.ru
соевые бобы варёные (зрелые),452,Сайт fitaudit.ru
темпе,622,Сайт fitaudit.ru
мука соевая,3244,Сайт fitaudit.ru
мука нутовая,1013,Сайт fitaudit.ru
соевый сыр тофу сухой,222,Сайт fitaudit.ru
чечевица (красная или розовая) сухая,1448,Сайт fitaudit.ru
арахис жареный,476,Сайт fitaudit.ru
соевый протеин (концентрат) порошок,1084,Сайт fitaudit.ru
говядина приготовленная (мясо без жира),104,Сайт fitaudit.ru
говяжий язык сырой,189,Сайт fitaudit.ru
говяжий рубец сырой,78,Сайт fitaudit.ru
говяжий язык отварной,164,Сайт fitaudit.ru
чай чёрный с сахаром и лимоном (приготовленный),7,Сайт fitaudit.ru
кофе с молоком и сахаром,2,Сайт fitaudit.ru
кофе зерновой сваренный,6,Сайт fitaudit.ru
цикорий растворимый (кофе в готовом виде),11,Сайт fitaudit.ru
чай зелёный с сахаром (приготовленный),6,Сайт fitaudit.ru
кофе эспрессо в готовом виде,56,Сайт fitaudit.ru
кофе растворимый приготовленный,12,Сайт fitaudit.ru
вино розовое,6,Сайт fitaudit.ru
чай зелёный без сахара приготовленный,6,Сайт fitaudit.ru
чай чёрный без сахара приготовленный,0,Сайт fitaudit.ru
энергетический напиток monster energy,0,Сайт fitaudit.ru
пиво тёмное или светлое,6,Сайт fitaudit.ru
водка 40 градусов алкоголя,11,Сайт fitaudit.ru
виски 43 градуса алкоголя,16,Сайт fitaudit.ru
ром 40 градусов алкоголя,56,Сайт fitaudit.ru
вино десертное сладкое,50,Сайт fitaudit.ru
протеин сывороточный порошок,54,Сайт fitaudit.ru
джин 45 градусов алкоголя,4,Сайт fitaudit.ru
вино столовое,8,Сайт fitaudit.ru
вино красное столовое,12,Сайт fitaudit.ru
соевый протеин порошок,2911,Сайт fitaudit.ru
вино белое столовое,4,Сайт fitaudit.ru
энергетический напиток red bull,2,Сайт fitaudit.ru
чай nestea чёрный с лимоном,9,Сайт fitaudit.ru
кола без кофеина,0,Сайт fitaudit.ru
кола,8,Сайт fitaudit.ru
зефир (маршмеллоу) в шоколаде,291,Сайт fitaudit.ru
печенье овсяное,149,Сайт fitaudit.ru
крекер,304,Сайт fitaudit.ru
хлебцы ржаные,283,Сайт fitaudit.ru
пончики,100,Сайт fitaudit.ru
блины,104,Сайт fitaudit.ru
хлеб из рисовых отрубей,204,Сайт fitaudit.ru
хлеб ржаной,207,Сайт fitaudit.ru
хлеб белый пшеничный,164,Сайт fitaudit.ru
хлеб из пшеничных отрубей,246,Сайт fitaudit.ru
хлеб из овсяных отрубей,150,Сайт fitaudit.ru
хлеб овсяный,232,Сайт fitaudit.ru
лаваш,187,Сайт fitaudit.ru
кекс шоколадный с шоколадной глазурью,240,Сайт fitaudit.ru
хлеб пшеничный цельнозерновой,252,Сайт fitaudit.ru
сухари панировочные,283,Сайт fitaudit.ru
коржи бисквитные для торта,84,Сайт fitaudit.ru
коржи шоколадные для торта,230,Сайт fitaudit.ru
чизкейк,22,Сайт fitaudit.ru
тортилья,126,Сайт fitaudit.ru
пита,187,Сайт fitaudit.ru
булочки из сладкого дрожжевого теста,134,Сайт fitaudit.ru
фокачча,101,Сайт fitaudit.ru
шоколад dove (молочный),0,Сайт fitaudit.ru
шоколад dove (тёмный),0,Сайт fitaudit.ru
мёд,40,Сайт fitaudit.ru
мороженое шоколадное,150,Сайт fitaudit.ru
мармелад,12,Сайт fitaudit.ru
меласса,541,Сайт fitaudit.ru
попкорн солёный,291,Сайт fitaudit.ru
попкорн карамельный,132,Сайт fitaudit.ru
шоколад белый,67,Сайт fitaudit.ru
мороженое,26,Сайт fitaudit.ru
щербет,31,Сайт fitaudit.ru
помадка,3,Сайт fitaudit.ru
ирис,1,Сайт fitaudit.ru
карамель,20,Сайт fitaudit.ru
халва,1336,Сайт fitaudit.ru
шоколад молочный,546,Сайт fitaudit.ru
шоколадный батончик kitkat,244,Сайт fitaudit.ru
шоколадный батончик mars (миндальный),278,Сайт fitaudit.ru
зефир (маршмэллоу),108,Сайт fitaudit.ru
шоколадный батончик snickers,300,Сайт fitaudit.ru
жевательная резинка,0,Сайт fitaudit.ru
шоколадный батончик twix,219,Сайт fitaudit.ru
какао-порошок,4209,Сайт fitaudit.ru
шоколадный батончик milky way,163,Сайт fitaudit.ru
сахар коричневый,52,Сайт fitaudit.ru
сахар сахарный песок,8,Сайт fitaudit.ru
аспартам заменитель сахара,0,Сайт fitaudit.ru
конфеты skittles,40,Сайт fitaudit.ru
сукралоза заменитель сахара,0,Сайт fitaudit.ru
стевия (сахарозаменитель) заменитель сахара,0,Сайт fitaudit.ru
шоколад тёмный (45-59% какао),1142,Сайт fitaudit.ru
шоколад тёмный (60-69% какао),1387,Сайт fitaudit.ru
шоколад тёмный (70-85% какао),1962,Сайт fitaudit.ru
сироп агавы заменитель сахара подсластитель,10,Сайт fitaudit.ru
чипсы картофельные без соли,387,Сайт fitaudit.ru
попкорн без соли,467,Сайт fitaudit.ru
крендельки без соли,293,Сайт fitaudit.ru
лосятина приготовленная,158,Сайт fitaudit.ru
козлятина сырая,284,Сайт fitaudit.ru
козлятина приготовленная,337,Сайт fitaudit.ru
конина приготовленная,190,Сайт fitaudit.ru
конина сырая,160,Сайт fitaudit.ru
крольчатина сырая,161,Сайт fitaudit.ru
крольчатина приготовленная,210,Сайт fitaudit.ru
баранина сырая,138,Сайт fitaudit.ru
баранина приготовленная,134,Сайт fitaudit.ru
телятина приготовленная,133,Сайт fitaudit.ru
телятина сырая,126,Сайт fitaudit.ru
мясо бобра приготовленное,210,Сайт fitaudit.ru
мясо бифало сырое,0,Сайт fitaudit.ru
мясо бифало приготовленное,0,Сайт fitaudit.ru
мясо бобра сырое,0,Сайт fitaudit.ru
мясо дикого кабана сырое,0,Сайт fitaudit.ru
мясо дикого кабана приготовленное,62,Сайт fitaudit.ru
оленина сырая,281,Сайт fitaudit.ru
оленина приготовленная,333,Сайт fitaudit.ru
лосятина сырая,133,Сайт fitaudit.ru
мясо антилопы сырое,200,Сайт fitaudit.ru
мясо антилопы приготовленное,237,Сайт fitaudit.ru
медвежатина сырая,0,Сайт fitaudit.ru
медвежатина приготовленная,164,Сайт fitaudit.ru
мясо бизона приготовленное,168,Сайт fitaudit.ru
мясо бизона сырое,156,Сайт fitaudit.ru
гамбургер (макдоналдс),107,Сайт fitaudit.ru
чизбургер (макдоналдс),108,Сайт fitaudit.ru
хот-дог,87,Сайт fitaudit.ru
луковые кольца,83,Сайт fitaudit.ru
мука кукурузная белая цельнозерновая,256,Сайт fitaudit.ru
мука кукурузная,158,Сайт fitaudit.ru
мука кукурузная белая (маса),232,Сайт fitaudit.ru
крахмал кукурузный,56,Сайт fitaudit.ru
кускус крупа сухая,274,Сайт fitaudit.ru
кускус варёный на воде,46,Сайт fitaudit.ru
пшено крупа пшённая сухая,833,Сайт fitaudit.ru
пшено варёное на воде,179,Сайт fitaudit.ru
отруби овсяные необработанные термически,448,Сайт fitaudit.ru
крупа амарантовая сухая (семена),583,Сайт fitaudit.ru
амарант зёрна приготовленные,166,Сайт fitaudit.ru
мука арроурут,44,Сайт fitaudit.ru
крупа ячневая в сухом виде,553,Сайт fitaudit.ru
перловка крупа перловая сухая,467,Сайт fitaudit.ru
перловка варёная на воде (перловая каша),117,Сайт fitaudit.ru
гречка зелёная сухая,1222,Сайт fitaudit.ru
гречка крупа гречневая сухая (коричневая),693,Сайт fitaudit.ru
мука гречневая,572,Сайт fitaudit.ru
булгур сухой крупа,372,Сайт fitaudit.ru
булгур варёный на воде (каша),83,Сайт fitaudit.ru
гречка варёная на воде (гречневая каша),162,Сайт fitaudit.ru
зёрна кукурузы сухие,349,Сайт fitaudit.ru
отруби кукурузные необработанные термически,276,Сайт fitaudit.ru
мука кукурузная жёлтая цельнозерновая,256,Сайт fitaudit.ru
рис клейкий (липкий) в сухом виде,190,Сайт fitaudit.ru
рис клейкий (липкий) варёный,54,Сайт fitaudit.ru
мука рисовая,144,Сайт fitaudit.ru
ржаное зерно (рожь) в сухом виде,408,Сайт fitaudit.ru
отруби рисовые необработанные термически,809,Сайт fitaudit.ru
мука ржаная,237,Сайт fitaudit.ru
киноа крупа сухая,656,Сайт fitaudit.ru
рис бурый длиннозерный в сухом виде,336,Сайт fitaudit.ru
рис бурый длиннозерный варёный,118,Сайт fitaudit.ru
овсянка крупа овсяная в сухом виде,696,Сайт fitaudit.ru
рис бурый варёный,90,Сайт fitaudit.ru
рис бурый пропаренный в сухом виде,363,Сайт fitaudit.ru
рис бурый в сухом виде,308,Сайт fitaudit.ru
пшеница пророщенная в свежем виде,290,Сайт fitaudit.ru
рис дикий в сухом виде,582,Сайт fitaudit.ru
рис дикий варёный,134,Сайт fitaudit.ru
лапша кукурузная в сухом виде,224,Сайт fitaudit.ru
лапша кукурузная варёная,71,Сайт fitaudit.ru
мука из бурого риса,256,Сайт fitaudit.ru
лапша домашняя варёная,62,Сайт fitaudit.ru
сорго крупа в сухом виде,316,Сайт fitaudit.ru
тапиока в сухом виде,22,Сайт fitaudit.ru
тритикале неприготовленная (зерно),508,Сайт fitaudit.ru
мука из тритикале,621,Сайт fitaudit.ru
отруби пшеничные необработанные термически,1109,Сайт fitaudit.ru
мука цельнозерновая (пшеничная),456,Сайт fitaudit.ru
лапша пшеничная (удон) варёная,28,Сайт fitaudit.ru
лапша из цельнозерновой пшеницы в сухом виде,552,Сайт fitaudit.ru
лапша из цельнозерновой пшеницы варёные,250,Сайт fitaudit.ru
мука ячменная солодовая,300,Сайт fitaudit.ru
мука овсяная,486,Сайт fitaudit.ru
лапша рисовая в сухом виде,87,Сайт fitaudit.ru
мука ячменная,381,Сайт fitaudit.ru
лапша гречневая (соба) в сухом виде,256,Сайт fitaudit.ru
лапша гречневая (соба) варёная,9,Сайт fitaudit.ru
лапша пшеничная (удон) в сухом виде,160,Сайт fitaudit.ru
лапша рисовая варёная,42,Сайт fitaudit.ru
киноа варёное на воде,213,Сайт fitaudit.ru
полба варёная на воде,239,Сайт fitaudit.ru
крупа теф в сухом виде,900,Сайт fitaudit.ru
теф приготовленный,251,Сайт fitaudit.ru
полба крупа в сухом виде,568,Сайт fitaudit.ru
мука пшеничная высшего сорта,209,Сайт fitaudit.ru
рис бурый пропаренный варёный,143,Сайт fitaudit.ru
мука сорго,10,Сайт fitaudit.ru
мука пшеничная первого сорта,179,Сайт fitaudit.ru
мука пшеничная второго сорта,208,Сайт fitaudit.ru
мука пшеничная обойная,217,Сайт fitaudit.ru
мука пшённая,594,Сайт fitaudit.ru
мука сорго цельнозерновая,281,Сайт fitaudit.ru
лапша (макароны паста) варёная,111,Сайт fitaudit.ru
лапша (макароны паста) в сухом виде,321,Сайт fitaudit.ru
лапша яичная в сухом виде,330,Сайт fitaudit.ru
лапша яичная варёная,109,Сайт fitaudit.ru
рис варёный (на воде),42,Сайт fitaudit.ru
рис круглозёрный в сухом виде,233,Сайт fitaudit.ru
рис круглозёрный варёный,80,Сайт fitaudit.ru
рис в сухом виде,122,Сайт fitaudit.ru
рис длиннозёрный в сухом виде,244,Сайт fitaudit.ru
рис длиннозёрный варёный,77,Сайт fitaudit.ru
рис пропаренный в сухом виде,316,Сайт fitaudit.ru
рис пропаренный варёный,78,Сайт fitaudit.ru
мука пшеничная универсальная,160,Сайт fitaudit.ru
сухари из хлеба,186,Сайт fitaudit.ru
фарш говяжий сырой 20% жира,68,Сайт fitaudit.ru
говяжий рубец отварной,0,Сайт fitaudit.ru
говяжьи рёбра сырые,52,Сайт fitaudit.ru
говяжья шея (чак ай ролл) сырая,77,Сайт fitaudit.ru
говяжий толстый край сырой,61,Сайт fitaudit.ru
говяжий огузок кострец сырой,52,Сайт fitaudit.ru
говяжья пашина брюшина фланк в сыром виде,49,Сайт fitaudit.ru
говяжья голяшка сырая,70,Сайт fitaudit.ru
говяжья лопатка сырая,153,Сайт fitaudit.ru
говяжья грудинка сырая,41,Сайт fitaudit.ru
говядина сырая мясо без жира,81,Сайт fitaudit.ru
говяжий тонкий край (стриплойн) сырой,51,Сайт fitaudit.ru
говяжья вырезка (тендерлойн) сырая,113,Сайт fitaudit.ru
лепёшка паратха,162,Сайт fitaudit.ru
лепёшка наан индийская пшеничная лепёшка,143,Сайт fitaudit.ru
хлеб из пророщенной пшеницы,231,Сайт fitaudit.ru
хлебцы мультизерновые,610,Сайт fitaudit.ru
хлеб мультизерновой,313,Сайт fitaudit.ru
имбирь маринованный,20,Сайт fitaudit.ru
сыр филадельфия,40,Сайт fitaudit.ru
сыр мексиканский кесо чихуахуа,27,Сайт fitaudit.ru
белок куриного яйца в виде порошка,127,Сайт fitaudit.ru
молоко коровье 2% жирности,7,Сайт fitaudit.ru
сметана,18,Сайт fitaudit.ru
сметена обезжиренная,18,Сайт fitaudit.ru
протеиновые добавки на основе молока порошок,1556,Сайт fitaudit.ru
сыр кесо фреско,37,Сайт fitaudit.ru
ряженка,28,Сайт fitaudit.ru
молоко сухое,89,Сайт fitaudit.ru
кефир,10,Сайт fitaudit.ru
йогурт,21,Сайт fitaudit.ru
сыр мексиканский котиха,264,Сайт fitaudit.ru
сыр cливочный,20,Сайт fitaudit.ru
сыр эдам,40,Сайт fitaudit.ru
сыр фета,36,Сайт fitaudit.ru
сыр брюнуст,89,Сайт fitaudit.ru
сыр гауда,40,Сайт fitaudit.ru
сыр грюйер,36,Сайт fitaudit.ru
сыр фонтина,28,Сайт fitaudit.ru
сыр лимбургер,23,Сайт fitaudit.ru
сыр монтерей,36,Сайт fitaudit.ru
сыр моцарелла,37,Сайт fitaudit.ru
сыр нёшатель,30,Сайт fitaudit.ru
сыр пармезан,36,Сайт fitaudit.ru
сыр мюнстер,34,Сайт fitaudit.ru
масло сливочное,1,Сайт fitaudit.ru
сыры с плесенью,44,Сайт fitaudit.ru
сыр бри,21,Сайт fitaudit.ru
сыр камамбер,23,Сайт fitaudit.ru
сыр чеддер,33,Сайт fitaudit.ru
сыр колби,47,Сайт fitaudit.ru
сыр чешир,47,Сайт fitaudit.ru
творог 2% жирности,37,Сайт fitaudit.ru
сыр пор-салю,24,Сайт fitaudit.ru
сыр проволоне,29,Сайт fitaudit.ru
сыр рикотта,38,Сайт fitaudit.ru
сыр пекорино романо,33,Сайт fitaudit.ru
сыр рокфор,38,Сайт fitaudit.ru
сыр тильзитер,29,Сайт fitaudit.ru
сыр швейцарский,52,Сайт fitaudit.ru
молоко сгущённое,17,Сайт fitaudit.ru
молоко цельное коровье 37% жирности,11,Сайт fitaudit.ru
яйцо куриное сырое,80,Сайт fitaudit.ru
яичный белок в сыром виде,26,Сайт fitaudit.ru
яичный желток в сыром виде,86,Сайт fitaudit.ru
яйцо куриное жареное,87,Сайт fitaudit.ru
яйцо куриное варёное (вкрутую),14,Сайт fitaudit.ru
омлет яичный,70,Сайт fitaudit.ru
молоко козье,51,Сайт fitaudit.ru
молоко грудное женское,58,Сайт fitaudit.ru
молоко овечье,51,Сайт fitaudit.ru
молочная сыворотка,3,Сайт fitaudit.ru
сыр козий,627,Сайт fitaudit.ru
сыр мексиканский аньехо,9,Сайт fitaudit.ru
сыр мексиканский оахака,29,Сайт fitaudit.ru
желток куриного яйца в виде порошка,0,Сайт fitaudit.ru
яйцо утиное сырое,69,Сайт fitaudit.ru
яйцо гусиное сырое,69,Сайт fitaudit.ru
яйцо индейки сырое,69,Сайт fitaudit.ru
яйцо перепелиное сырое,69,Сайт fitaudit.ru
заменители яиц в виде порошка,230,Сайт fitaudit.ru
укроп сушёный,544,Сайт fitaudit.ru
семена фенхеля,1186,Сайт fitaudit.ru
пажитник семена,1233,Сайт fitaudit.ru
экстракт имбиря порошок,533,Сайт fitaudit.ru
мускатный орех пряность молотый,2741,Сайт fitaudit.ru
майоран специя в виде порошка,1259,Сайт fitaudit.ru
чеснок сушёный,592,Сайт fitaudit.ru
семена горчицы молотая горчица,717,Сайт fitaudit.ru
луковый порошок,656,Сайт fitaudit.ru
орегано душица высушенная,703,Сайт fitaudit.ru
паприка специя в виде порошка,792,Сайт fitaudit.ru
петрушка сушёная,867,Сайт fitaudit.ru
перец белый молотый,1011,Сайт fitaudit.ru
семена мака,1808,Сайт fitaudit.ru
перец чёрный молотый,1478,Сайт fitaudit.ru
перец душистый молотый,614,Сайт fitaudit.ru
семена аниса,1011,Сайт fitaudit.ru
базилик сухой,2333,Сайт fitaudit.ru
лавровый лист,462,Сайт fitaudit.ru
тмин семена,1011,Сайт fitaudit.ru
кардамон,426,Сайт fitaudit.ru
семена сельдерея,1522,Сайт fitaudit.ru
кервель ажурный сушёный,489,Сайт fitaudit.ru
перец чили молотый сухой,1111,Сайт fitaudit.ru
гвоздика (пряность) приправа в виде порошка,409,Сайт fitaudit.ru
кориандр (кинза) лист высушенный,1984,Сайт fitaudit.ru
семена кориандра,1083,Сайт fitaudit.ru
корица порошок,377,Сайт fitaudit.ru
зира семена кумина,963,Сайт fitaudit.ru
семена укропа,867,Сайт fitaudit.ru
уксус,7,Сайт fitaudit.ru
ваниль экстракт,80,Сайт fitaudit.ru
каперсы маринованные,416,Сайт fitaudit.ru
хрен столовый готовый к употреблению,64,Сайт fitaudit.ru
розмарин свежий,334,Сайт fitaudit.ru
мята перечная свежая,366,Сайт fitaudit.ru
мята свежая,267,Сайт fitaudit.ru
мята сушёная,1713,Сайт fitaudit.ru
розмарин сушёный,611,Сайт fitaudit.ru
шафран специя,364,Сайт fitaudit.ru
шалфей молотый,841,Сайт fitaudit.ru
чабер молотый,941,Сайт fitaudit.ru
эстрагон сушёный,752,Сайт fitaudit.ru
тимьян сушёный,956,Сайт fitaudit.ru
куркума приправа в виде порошка,1444,Сайт fitaudit.ru
базилик свежий,428,Сайт fitaudit.ru
укроп свежий,162,Сайт fitaudit.ru
горчица столовая пастообразная,82,Сайт fitaudit.ru
соль столовая,33,Сайт fitaudit.ru
уксус яблочный,9,Сайт fitaudit.ru
тимьян свежий,617,Сайт fitaudit.ru
уксус винный (красный),11,Сайт fitaudit.ru
уксус бальзамический,29,Сайт fitaudit.ru
масло льняное,0,Сайт fitaudit.ru
фруктоза заменитель сахара,246,Сайт fitaudit.ru
сыр плавленый,17,Сайт fitaudit.ru
фазан приготовленный,93,Сайт fitaudit.ru
сахарин заменитель сахара,0,Сайт fitaudit.ru
морс клюквенный без сахара,61,Сайт fitaudit.ru
чипсы кукурузные (начос) без соли,277,Сайт fitaudit.ru
медуза сушёная,156,Сайт fitaudit.ru
сакэ,10,Сайт fitaudit.ru
глютен (клейковина пшеничная) в сухом виде,202,Сайт fitaudit.ru
скумбрия солёная,111,Сайт fitaudit.ru
лягушачьи лапки сырые,278,Сайт fitaudit.ru
морской гребешок приготовленный,37,Сайт fitaudit.ru
улитки сырые,444,Сайт fitaudit.ru